[
  {
    "id": 1,
    "title": "Flex Tape",
    "img": "https://i2.rozetka.ua/goods/10599250/flex_tape_flextape10015_images_10599250502.jpg",
    "price": 19.99,
    "article": "1111111",
    "color": "black"
  },
  {
    "id": 2,
    "title": "Clown Boots",
    "img": "https://i.pinimg.com/originals/ba/ba/8c/baba8c9d20e3b895a6e71250cc2346e5.jpg",
    "price": 39.99,
    "article": "2222222",
    "color": "red"
  },
  {
    "id": 3,
    "title": "Bitcoin :/",
    "img": "https://i1.rozetka.ua/goods/13158423/107783868_images_13158423768.jpg",
    "price": 2.99,
    "article": "3333333",
    "color": "gold"
  },
  {
    "id": 4,
    "title": "Cheater Mouse",
    "img": "https://i.citrus.ua/imgcache/size_800/uploads/shop/0/d/0d7aa074e54c243ca7cc32d04598ec5c.jpg",
    "price": 39.99,
    "article": "4444444",
    "color": "black with rgb"
  },
  {
    "id": 5,
    "title": "Overprice headphones",
    "img": "https://i.eldorado.ua//goods_images/1038998/6893397-1608196962.jpg",
    "price": 729.99,
    "article": "5555555",
    "color": "white"
  },
  {
    "id": 6,
    "title": "8K Resolution TV",
    "img": "https://s.ek.ua/jpg_zoom1/1721481.jpg",
    "price": 5999.99,
    "article": "6666666",
    "color": "black"
  },
  {
    "id": 7,
    "title": "Robot vacuum cleaner",
    "img": "https://mzimg.com/big/f1/garuh6c6ef1.jpg",
    "price": 189.99,
    "article": "7777777",
    "color": "black"
  },
  {
    "id": 8,
    "title": "PC Case",
    "img": "https://s.ek.ua/jpg_zoom1/1863090.jpg",
    "price": 89.99,
    "article": "8888888",
    "color": "black"
  },
  {
    "id": 9,
    "title": "Oven",
    "img": "https://s.ek.ua/jpg_zoom1/1648714.jpg",
    "price": 399.99,
    "article": "9999999",
    "color": "black"
  },
  {
    "id": 10,
    "title": "Fishing Rod",
    "img": "https://s.ek.ua/jpg_zoom1/1938979.jpg",
    "price": 69.99,
    "article": "10101010",
    "color": "brown"
  }
]